{
  "modulos":[
    {
      "id":1,
      "label":"Módulo 1",
      "nome":"Vigilância da Influenza",
      "objetivo":"Reconhecer a trajetória da influenza ao longo do tempo e o modelo de vigilância de síndrome gripal no Brasil e identificar o modelo de vigilância de síndrome respiratória aguda grave.",
      "descricao":"Nesse módulo será apresentada as etapas da investigação de um surto, bem como  a intervenção a partir de respostas rápidas  em situação de surto.",
      "imagem":"assets/images/modulo_1.svg",
      "url":"#/modulo_1/",
      "video":"https://www.youtube.com/embed/nAuNMp7IoHY?&rel=0&showinfo=0",
      "unidades":[
        {
          "id":1,
          "label":"Unidade 1",
          "nome":"Introdução",
          "impressao":"modulo_1/unidade_1.pdf",
          "topicos":[
            {
              "id":1,
              "nome":"Introdução",
              "imagem":"assets/images/modulo_1/unidade_1/topico_1.png",
              "quantidadePaginas":"4",
              "url":"#/modulo_1/unidade_1/topico_1/1"
            },
            {
              "id":2,
              "nome":"Doenças de Notificação Compulsória",
              "imagem":"assets/images/modulo_1/unidade_1/topico_2.png",
              "quantidadePaginas":"2",
              "url":"#/modulo_1/unidade_1/topico_2/1"
            },
            {
              "id":3,
              "nome":"Concluindo",
              "imagem":"assets/images/modulo_1/unidade_1/topico_3.png",
              "quantidadePaginas":"1",
              "url":"#/modulo_1/unidade_1/topico_3/1"
            }
          ]
        },
        {
          "id":2,
          "label":"Unidade 2",
          "nome":"Conceitos gerais de vigilância epidemiológica",
          "impressao":"modulo_1/unidade_2.pdf",
          "topicos":[
            {
              "id":1,
              "nome":"Conceitos de gripe e resfriado",
              "imagem":"assets/images/modulo_1/unidade_2/topico_1.png",
              "quantidadePaginas":"4",
              "url":"#/modulo_1/unidade_2/topico_1/1"
            },
            {
              "id":2,
              "nome":"Características clínicas e epidemiológicas da influenza",
              "imagem":"assets/images/modulo_1/unidade_2/topico_2.png",
              "quantidadePaginas":"6",
              "url":"#/modulo_1/unidade_2/topico_2/1"
            },
            {
              "id":3,
              "nome":"Concluindo",
              "imagem":"assets/images/modulo_1/unidade_2/topico_3.png",
              "quantidadePaginas":"1",
              "url":"#/modulo_1/unidade_2/topico_3/1"
            }
          ]
        },
        {
          "id":3,
          "label":"Unidade 3",
          "nome":"Importância da vigilância epidemiológica da influenza",
          "impressao":"modulo_1/unidade_3.pdf",
          "topicos":[
            {
              "id":1,
              "nome":"Introdução e breve histórico",
              "imagem":"assets/images/modulo_1/unidade_3/topico_1.png",
              "quantidadePaginas":"6",
              "url":"#/modulo_1/unidade_3/topico_1/1"
            },
            {
              "id":2,
              "nome":"Sistema de vigilância da influenza",
              "imagem":"assets/images/modulo_1/unidade_3/topico_2.png",
              "quantidadePaginas":"1",
              "url":"#/modulo_1/unidade_3/topico_2/1"
            },
            {
              "id":3,
              "nome":"Concluindo",
              "imagem":"assets/images/modulo_1/unidade_3/topico_3.png",
              "quantidadePaginas":"1",
              "url":"#/modulo_1/unidade_3/topico_3/1"
            }
          ]
        },
        {
          "id":4,
          "label":"Unidade 4",
          "nome":"Vigilância da Influenza no Brasil",
          "impressao":"modulo_1/unidade_4.pdf",
          "topicos":[
            {
              "id":1,
              "nome":"Vigilância de Síndrome Gripal",
              "imagem":"assets/images/modulo_1/unidade_4/topico_1.png",
              "quantidadePaginas":"6",
              "url":"#/modulo_1/unidade_4/topico_1/1"
            },
            {
              "id":2,
              "nome":"Metas e Indicadores na Vigilância de Síndrome Gripal",
              "imagem":"assets/images/modulo_1/unidade_4/topico_2.png",
              "quantidadePaginas":"3",
              "url":"#/modulo_1/unidade_4/topico_2/1"
            },
            {
              "id":3,
              "nome":"Tratamento de Síndrome Gripal",
              "imagem":"assets/images/modulo_1/unidade_4/topico_3.png",
              "quantidadePaginas":"3",
              "url":"#/modulo_1/unidade_4/topico_3/1"
            },
            {
              "id":4,
              "nome":"Vigilância de Síndrome Respiratória Aguda Grave",
              "imagem":"assets/images/modulo_1/unidade_4/topico_4.png",
              "quantidadePaginas":"6",
              "url":"#/modulo_1/unidade_4/topico_4/1"
            },
            {
              "id":5,
              "nome":"Diagnóstico Laboratórial",
              "imagem":"assets/images/modulo_1/unidade_4/topico_5.png",
              "quantidadePaginas":"5",
              "url":"#/modulo_1/unidade_4/topico_5/1"
            }
          ]
        },
        {
          "id":5,
          "label":"Unidade 5",
          "nome":"Novo modelo de vigilância da Influenza no Brasil",
          "impressao":"modulo_1/unidade_5.pdf",
          "topicos":[
            {
              "id":1,
              "nome":"Sítios sentinelas de Influenza",
              "imagem":"assets/images/modulo_1/unidade_5/topico_1.png",
              "quantidadePaginas":"6",
              "url":"#/modulo_1/unidade_5/topico_1/1"
            },
            {
              "id":2,
              "nome":"Dados e Sistema de Informação",
              "imagem":"assets/images/modulo_1/unidade_5/topico_2.png",
              "quantidadePaginas":"6",
              "url":"#/modulo_1/unidade_5/topico_2/1"
            },
            {
              "id":3,
              "nome":"Metas e Indicadores de monitoramento da vigilância de influeza",
              "imagem":"assets/images/modulo_1/unidade_5/topico_3.png",
              "quantidadePaginas":"3",
              "url":"#/modulo_1/unidade_5/topico_3/1"
            },
            {
              "id":4,
              "nome":"Laboratório",
              "imagem":"assets/images/modulo_1/unidade_5/topico_4.png",
              "quantidadePaginas":"1",
              "url":"#/modulo_1/unidade_5/topico_4/1"
            },
            {
              "id":5,
              "nome":"Sistema de Informação",
              "imagem":"assets/images/modulo_1/unidade_5/topico_5.png",
              "quantidadePaginas":"2",
              "url":"#/modulo_1/unidade_5/topico_5/1"
            }
          ]
        }
      ]
    },
    {
      "id":2,
      "label":"Módulo 2",
      "nome":"Investigação de Surto de Síndrome Gripal",
      "objetivo":"Reconhecer as definições e conceitos para investigação bem como sua importância; identificar as etapas de investigação de um surto; e responder prontamente em situação de emergência.",
      "descricao":"Nesse módulo será apresentada as etapas da investigação de um surto, bem como  a intervenção a partir de respostas rápidas  em situação de surto.",
      "imagem":"assets/images/modulo_2.svg",
      "url":"#/modulo_2/",
      "video":"https://www.youtube.com/embed/lrbPHfVeId0?&rel=0&showinfo=0",
      "unidades":[
        {
          "id":1,
          "label":"Unidade 1",
          "nome":"Introdução",
          "impressao":"modulo_2/unidade_1.pdf",
          "topicos":[
            {
              "id":1,
              "nome":"Um surto de síndrome gripal",
              "imagem":"assets/images/modulo_2/unidade_1/topico_1.png",
              "quantidadePaginas":"2",
              "url":"#/modulo_2/unidade_1/topico_1/1"
            },
            {
              "id":2,
              "nome":"Definindo surto, epidemia e pandemia",
              "imagem":"assets/images/modulo_2/unidade_1/topico_2.png",
              "quantidadePaginas":"1",
              "url":"#/modulo_2/unidade_1/topico_2/1"
            },
            {
              "id":3,
              "nome":"Definindo doenças emergentes e reemergentes",
              "imagem":"assets/images/modulo_2/unidade_1/topico_3.png",
              "quantidadePaginas":"1",
              "url":"#/modulo_2/unidade_1/topico_3/1"
            },
            {
              "id":4,
              "nome":"Um pouco de história",
              "imagem":"assets/images/modulo_2/unidade_1/topico_4.png",
              "quantidadePaginas":"1",
              "url":"#/modulo_2/unidade_1/topico_4/1"
            },
            {
              "id":5,
              "nome":"Concluindo",
              "imagem":"assets/images/modulo_2/unidade_1/topico_5.png",
              "quantidadePaginas":"1",
              "url":"#/modulo_2/unidade_1/topico_5/1"
            }
          ]
        },
        {
          "id":2,
          "label":"Unidade 2",
          "nome":"Investigação epidemiológica",
          "impressao":"modulo_2/unidade_2.pdf",
          "topicos":[
            {
              "id":1,
              "nome":"Quando suspeitar e notificar um surto",
              "imagem":"assets/images/modulo_2/unidade_2/topico_1.png",
              "quantidadePaginas":"2",
              "url":"#/modulo_2/unidade_2/topico_1/1"
            },
            {
              "id":2,
              "nome":"Porque investigar um surto",
              "imagem":"assets/images/modulo_2/unidade_2/topico_2.png",
              "quantidadePaginas":"1",
              "url":"#/modulo_2/unidade_2/topico_2/1"
            },
            {
              "id":3,
              "nome":"Objetivos de investigar um surto",
              "imagem":"assets/images/modulo_2/unidade_2/topico_3.png",
              "quantidadePaginas":"2",
              "url":"#/modulo_2/unidade_2/topico_3/1"
            },
            {
              "id":4,
              "nome":"Método epidemiológico",
              "imagem":"assets/images/modulo_2/unidade_2/topico_4.png",
              "quantidadePaginas":"4",
              "url":"#/modulo_2/unidade_2/topico_4/1"
            },
            {
              "id":5,
              "nome":"Concluindo",
              "imagem":"assets/images/modulo_2/unidade_2/topico_5.png",
              "quantidadePaginas":"1",
              "url":"#/modulo_2/unidade_2/topico_5/1"
            }
          ]
        },
        {
          "id":3,
          "label":"Unidade 3",
          "nome":"Etapas da investigação de surto",
          "impressao":"modulo_2/unidade_3.pdf",
          "topicos":[
            {
              "id":1,
              "nome":"Introdução",
              "imagem":"assets/images/modulo_2/unidade_3/topico_1.png",
              "quantidadePaginas":"2",
              "url":"#/modulo_2/unidade_3/topico_1/1"
            },
            {
              "id":2,
              "nome":"Passos na investigação de um surto de SG",
              "imagem":"assets/images/modulo_2/unidade_3/topico_2.png",
              "quantidadePaginas":"18",
              "url":"#/modulo_2/unidade_3/topico_2/1"
            },
            {
              "id":3,
              "nome":"Concluindo",
              "imagem":"assets/images/modulo_2/unidade_3/topico_3.png",
              "quantidadePaginas":"1",
              "url":"#/modulo_2/unidade_3/topico_3/1"
            }
          ]
        },
        {
          "id":4,
          "label":"Unidade 4",
          "nome":"Respostas rápidas em situação de surto",
          "impressao":"modulo_2/unidade_4.pdf",
          "topicos":[
            {
              "id":1,
              "nome":"Centro de Informações Estratégicas em Vigilância em Saúde – CIEVS",
              "imagem":"assets/images/modulo_2/unidade_4/topico_1.png",
              "quantidadePaginas":"4",
              "url":"#/modulo_2/unidade_4/topico_1/1"
            },
            {
              "id":2,
              "nome":"Pandemia de Influenza",
              "imagem":"assets/images/modulo_2/unidade_4/topico_2.png",
              "quantidadePaginas":"4",
              "url":"#/modulo_2/unidade_4/topico_2/1"
            },
            {
              "id":3,
              "nome":"Concluindo",
              "imagem":"assets/images/modulo_2/unidade_4/topico_3.png",
              "quantidadePaginas":"1",
              "url":"#/modulo_2/unidade_4/topico_3/1"
            }
          ]
        }
      ]
    },
    {
      "id":3,
      "label":"Módulo 3",
      "nome":"Organização do serviço e análise de dados",
      "objetivo":"Reconhecer as ações voltadas para educação em saúde, considerando as instituições e comunidades em que atua e  reconhecer as medidas de precaução e redução de efeitos causados por uma doença.",
      "descricao":"Neste módulo abordaremos as medidas de prevenção e controle, o atendimento e assistência, além de organização de fluxos de dados.",
      "imagem":"assets/images/modulo_3.svg",
      "url":"#/modulo_3/",
      "video":"https://www.youtube.com/embed/Bezs3IxMqgk?&rel=0&showinfo=0",
      "unidades":[
        {
          "id":1,
          "label":"Unidade 1",
          "nome":"Medidas de prevenção e controle",
          "impressao":"modulo_3/unidade_1.pdf",
          "topicos":[
            {
              "id":1,
              "nome":"Medicamento",
              "imagem":"assets/images/modulo_3/unidade_1/topico_1.png",
              "quantidadePaginas":"9",
              "url":"#/modulo_3/unidade_1/topico_1/1"
            },
            {
              "id":2,
              "nome":"Vacinação",
              "imagem":"assets/images/modulo_3/unidade_1/topico_2.png",
              "quantidadePaginas":"4",
              "url":"#/modulo_3/unidade_1/topico_2/1"
            },
            {
              "id":3,
              "nome":"Medidas de não farmacológicas",
              "imagem":"assets/images/modulo_3/unidade_1/topico_3.png",
              "quantidadePaginas":"2",
              "url":"#/modulo_3/unidade_1/topico_3/1"
            },
            {
              "id":4,
              "nome":"Concluindo",
              "imagem":"assets/images/modulo_3/unidade_1/topico_4.png",
              "quantidadePaginas":"1",
              "url":"#/modulo_3/unidade_1/topico_4/1"
            }
          ]
        },
        {
          "id":2,
          "label":"Unidade 2",
          "nome":"Atendimento/Assistência",
          "impressao":"modulo_3/unidade_2.pdf",
          "topicos":[
            {
              "id":1,
              "nome":"Controle de Infecção relacionada à assistência à saúde ",
              "imagem":"assets/images/modulo_3/unidade_2/topico_1.png",
              "quantidadePaginas":"11",
              "url":"#/modulo_3/unidade_2/topico_1/1"
            },
            {
              "id":2,
              "nome":"Concluindo",
              "quantidadePaginas":"1",
              "url":"#/modulo_3/unidade_2/topico_1/1"
            }
          ]
        },
        {
          "id":3,
          "label":"Unidade 3",
          "nome":"Análise de dados",
          "impressao":"modulo_3/unidade_3.pdf",
          "topicos":[
            {
              "id":1,
              "nome":"Fontes e organização de fluxos de dados",
              "imagem":"assets/images/modulo_3/unidade_3/topico_1.png",
              "quantidadePaginas":"3",
              "url":"#/modulo_3/unidade_3/topico_1/1"
            },
            {
              "id":2,
              "nome":"Consolidando os dados",
              "imagem":"assets/images/modulo_3/unidade_3/topico_2.png",
              "quantidadePaginas":"4",
              "url":"#/modulo_3/unidade_3/topico_2/1"
            },
            {
              "id":3,
              "nome":"Construção de gráficos",
              "imagem":"assets/images/modulo_3/unidade_3/topico_3.png",
              "quantidadePaginas":"3",
              "url":"#/modulo_3/unidade_3/topico_3/1"
            },
            {
              "id":4,
              "nome":"Concluindo",
              "imagem":"assets/images/modulo_3/unidade_3/topico_4.png",
              "quantidadePaginas":"1",
              "url":"#/modulo_3/unidade_3/topico_4/1"
            }
          ]
        }
      ]
    }
  ]
}
